﻿"Product Code","Product Name",Variant,Expected,Counted
35188456,បុិកគក់,,0.0000,
777001,"ននោងបារ៉ាង -Frozen Zucchini",,0.1193,
777002,ស្ពៃក្ដោបស្វាយ,,0.9400,
777003,"ម្រះខ្ចី-green pepper",,6.0000,
777005,"ផ្សិតត្រចៀកកណ្តុរ កញ្ចប់ - Black Mushroom​ pack 80g",,38.0000,
777006,"ផ្សិតគ្រៀម កញ្ចប់ - Brown Mushroom pack 80g",,1.0000,
777007,ទងល្ពៅ,,15.0000,
777008,"ផ្សិតក្ដាមស​ - white beech mushroom",,30.0000,
777009,"ផ្សិតតុងកូវ​ - shiitake mushroom",,0.0000,
777010,ស្លឹកងប់,,0.0000,
777011,"ផ្លែស៊ូ​​ - Plae Su",,8.8800,
777012,"ត្រឡាច - Frozen Bottle Gourd",,97.1292,
777013,"ខ្ទឹមបារាំងកក - Frozen Onion",,6.8630,
777014,"ត្រសក់ជប៉ុន - Japanese Cucumber",,9.3600,
777015,"ប្រូកូលីសុវត្ថិភាព​​ - Frozen Brocoli",,9.4400,
777016,"ម្ទេសប្លោក - Frozen green capsicum",,2.2500,
777017,ផ្កាឈូក,,6.7800,
777018,"អំពិលទុំមានគ្រាប់​​ - Tamarind​​ with seed 100g",,1.0000,
777019,"អំពិលទុំអត់គ្រាប់​​ 50g - Tamarind​​ No seed 50g",,1.0000,
777020,សណ្ដែកហោតាំតាវ,,6.4400,
777021,ដំឡូងឈាមមាន់,,41.2700,
777022,"ល្ហុងខ្ចី - Green Papaya",,21.3778,
777023,"ត្រួយអំពិល - Tamarind Leaf​ 100g",,0.7600,
777024,"salad Iceberg",,2.3500,
777025,"ដើមចេក - Banana Tree",,4.9580,
777026,"ពពាយជ្រុង - Winged Bean",,36.1332,
777027,"ស្ពៃខ្មៅ - Black Cabbage​​ pack",,37.9550,
777028,"ស្ពៃក្តោបសុវត្ថិភាព​ - Safe cabbage",,33.0549,
777029,"ទំពាំងក្រៀម-Dried bamboo",,39.0000,
777030,"ស្ពៃចង្កិះ - Mustard Green​​ pack",,1.7500,
777031,"ស្ពៃបូកគោ - Chinese Cabbage",,22.2587,
777032,"ប៉េងប៉ោះ​បរទេស ខៀវ​ ក្រហម - Green & red  Tomato",,12.4773,
777033,"Fresh Corn two pieces - ផ្លែពោត",,73.1137,
777034,"ដំឡូងបារាំង​​​​ សរីរាង្គ - Potato Bio",,26.8187,
777035,"ដំឡូងផ្អែមជប៉ុន​ - Japanese Potato",,162.8520,
777036,"ការ៉ុត - Carrot",,4.1852,
777038,ពោតលឿង,,72.8375,
777039,"ឆៃថាវ - Radish",,19.6052,
777041,"ស្ពៃក្រញាញ់ - Curly​ lettuce pack",,233.7124,
777042,"ត្រកួនចិន - Morning Glory kg",,47.1300,
777043,"ត្រកួនស្រែ - Morning Glory pack",,59.8980,
777044,"ម្រះ - Bitter Gourd",,24.1058,
777045,"ត្រឡាច - Bottle Gourd",,12.4399,
777046,"ត្រប់ស្រួយ - Pea Eggplant",,26.1375,
777047,"ត្រប់វែង - Eggplant​",,16.3520,
777048,"ត្រប់ពុតញង - Pea Eggplant",,18.0000,
777049,"បន្លែម្ជូូរយួន 500g",,48.9578,
777050,"ដើមខាត់ណា - Chinese Kale pack",,6.8000,
777051,"ពោតបារាំង - Okra",,12.7753,
777052,"ស្លឹកផ្ទី​ -​ Sleuk Pti",,42.2000,
777053,"បន្លែកកូរ 500g",,3.0000,
777054,"ននោងបារ៉ាង - Zucchini",,941.3560,
777055,"គល់ស្លឹកគ្រៃ - Lemongrass Bio",,157.0000,
777056,"គល់ស្លឹកគ្រៃ - Lemongrass Bio kg",,7.0293,
777057,"ម្ទេសប្លោក - green capsicum",,58.1250,
777058,"សាឡាដខ្មែរ កញ្ចប់ - Salad Khmer Bio​ 300g pack",,7.1500,
777059,"Salad box ",,0.0000,
777060,"Fruit Box size S",,46.0120,
777061,"ជីវ៉ាន់ស៊ុយ​ - culantro",,88.1140,
777062,"សាលាដ​ ស្លឹកតូច - Salad wild Rocket pack 200g",,0.1540,
777063,"Asparagus - ទំពាំងបារាំង",,3.3600,
777064,"ស្លឹកខ្ទឹម - Spring/Bunching Onion​ kg",,65.0530,
777065,"ផ្កាខាត់ណាលឿង - Cauliflower (yellow)",,3.6115,
777066,"ផ្កាគូឆាយ - Garlic Chives",,33.4000,
777067,"ម្អមស្រែ​ - Rice paddy herb",,70.9996,
777068,"ផែ្លក្រសាំង-Kro Sang",,3.8000,
777069,"កពែា្ឆតស្រែ-Water Mimosa",,27.3310,
777070,"មេីមខ្ញី - Ginger",,16.5837,
777071,"ខ្ញីហាន់​ - Slide ginger",,0.4700,
777072,"ផ្សិតស្រស់ - Fresh Mushroom",,999.6440,
777073,ស្លឹកគូឆាយ,,4.6640,
777074,"សណ្តែកគួរ - Long Bean",,3.0491,
777075,"សណ្ដែកគួរ-Long Bean Pack 300g",,42.6960,
777076,"សណ្ដែកបារាំង - Green Bean",,3.8563,
777077,"សណ្ដែកបារាំង - Green Bean​ pack",,18.0000,
777078,"សណ្ដែកបណ្ដុះ - Bean Sprout pack",,70.1700,
777079,"ក្រូចឆ្មាលឿង - Lemon yellow",,10.8200,
777080,ក្រូចសេីច-Citrus,,4.2220,
777081,"ស្នៀតពោត - baby corn ",,10.9940,
777082,"ននោង - Luffa Gourd",,8.8170,
777083,"រមៀត - Turmeric​​ 100g",,19.7000,
777084,"រំដេង​-​​ Galanga 100g",,120.2300,
777085,ខ្ជាយ,,3.8400,
777086,"ប៉េងប៉ោះឈើរី - cherry tomato",,20.5491,
777087,ត្រយ៉ូងចេក-Tropical-Bananas,,34.9632,
777088,"ព្រលឹត - Water Lily",,10.1393,
777089,"កញ្ឆែត - water mimosa",,8.6700,
777090,កាថុំថេត,,92.5000,
777091,"ល្ពៅ Pumpkin",,100.1967,
777092,"ខ្ទឹមបារាំង - Onion",,46.4130,
777093,"ខ្ទឹមស សរីរាង្គ រាយ- White​ Garlic Safe",,18.1640,
777094,"ខ្ទឹមសចង្កោម សរីរាង្គ - White​ Garlic bunch",,13.7610,
777095,"ខ្ទឹមក្រហម -  Red Garlic",,18.3820,
777096,"Red Chili pack - ម្ទេស ហិរ",,14.7320,
777097,"ប្រូកូលីសុវត្ថិភាព​​ - Safe Brocoli",,2.6294,
777098,"Rosemary Leaf - រ៉ូសម៉ារី",,873.9400,
777099,"ជីនាងវង​ - Khmer Basil",,81.9760,
777100,"ជីរណារ - Long Leaf",,86.4000,
777101,"ស្លឹកបាស - ivy gourd leaf",,37.0000,
777102,"ស្លឹកម្រុំ - sleuk mrom",,0.0000,
777103,"ស្លឹកម្កាក់ - sleuk ma kak",,0.0000,
777104,"ស្លឹកថ្នឹង - sleuk tneung",,27.1400,
777105,"Hot Basil - ស្លឹកម្រះព្រៅ",,67.3220,
777106,"ជីគ្រប់មុខ​ - Mix herb",,32.3650,
777107,ជីជ្រក់មួយដុំ,,920.4700,
777108,"ស្លឹកក្រូចសើច - lime leaf 50g",,879.6320,
777109,"ស្លឹកខ្ទឹម - Spring/Bunching Onion",,108.8600,
777111,"ក្រូចឆ្មាខ្មែរ kg - Lime kg",,1.6646,
777112,"Red long chili pack 150g - ម្ទេសហិរវែង​ 150g",,3.0200,
777113,"Red long chili - ម្ទេសហិរវែង",,10.7500,
777114,"Red chili - ម្ទេសហិរ pack",,47.1100,
777116,"ត្រសក់ ​- cucumber kg",,50.6857,
777117,"មើមយ៉េន -Beetroot",,3.6187,
777118,ត្រាវ,,6.2027,
777119,"ម្ទេសប្លោកក្រហម លឿង - Red Yellow capsicum",,7.1400,
777120,"អំពិលខ្ចី - Green Tamarind",,4.2000,
777121,"ស្លឹកគូឆាយ - Chive Leaf",,2.4800,
777122,"ក្តាត - kdat",,24.9000,
777123,"ទំពាំងបារាំង - Asparagus ",,0.0000,
777124,ទំពាំងខ្មែរ,,7.7760,
777125,"គីនឆាយតូច  - Small Celery",,13.2740,
777126,"គីនឆាយធំ (ឡាវ) - Big Celery (Laos)",,97.9199,
777127,"ជីអង្កាម - Mint",,10.8300,
777128,"ស្ពៃឆៃស៊ីម - Chhaisim Cabbage​​ pack",,20.0000,
777129,"Enoki Mushroom pack 200g",,2.0000,
777130,ឆៃថាវពណ៏ស្វាយបណ្ដុះ,,4.0000,
777131,ឆៃថាវបណ្ដុះពណ៍ស,,2.0000,
777132,បន្លែរបណ្ដុះលាយ,,0.0000,
777133,"សាលាដប៉ាតាវៀ​ - Batavia Lettuce",,119.3300,
777134,ដំឡូងជ្វា​​-potato,,11.5200,
777135,"ម្ទេសក្រៀម - Dry Red Chilli",,2.3400,
777136,"ម្ទេសប្លោកក្រៀម - ​Dried Peppers​​ 50g",,0.0000,
777138,តាំងអោ,,0.7500,
777139,"មើមឈូក - Lotus Stem",,1.1280,
777140,"ក្រអៅឈូក - Root Lotus",,10.4418,
777141,"ស្ពៃពុយឡេង - Spinach ​​ pack",,2.7391,
777142,"សាឡាដសង​ - Salad Song",,3.4300,
777143,"សាលាដ​ បាតាហែត- Lettuce Butterhead",,11.9697,
777144,"Vegetable Box small",,21.0000,
777145,"Vegetable Box Medium",,73.0000,
777146,"Vegetable Box Large",,94.0000,
777147,"Fruit Box Size M",,29.7800,
777148,"ម្រះ - Frozen Bitter Gourd",,0.0000,
777149,"DRY MUSHROOM.. 75g",,4.0000,
777150,ម្ទេសអាចម៍សត្វ,,4.4460,
777151,"សណ្ដែកគួរ​​- String Bean",,67.5900,
777152,"ស្ពៃតឿ - Pak Choi pack",,162.7095,
777153,"សាលាដ រ៉ូមែន - Salad Romaine​ 250g pack",,18.8200,
777154,"ត្រួយស្អំ - Climbing Wattle",,0.0000,
777155,"ផ្កាកាឆាយ - Chive Flower",,0.5200,
777156,"ស្តៅ - Neem Leaf",,1.5600,
777157,"ភ្លៅកង្កែប​ - Frog Leaf",,6.7500,
777159,"ក្រូចឆ្មារអត់គ្រាប់ kg - Lemon",,12.8400,
777161,"ត្រសក់ជប៉ុន- Japanese Cucumber ",,37.1198,
777162,"សាលាដហ្គ្រីនអូក - Green Oak Lettuce",,27.9992,
777163,"សាលាដហ្វ្រីសេ - Frissee Lettuce",,13.0000,
777166,សាលាដផ្កាថ្មក្រហម,,5.0000,
777167,ទំពាំងព្រិច,,3.4200,
777168,"ត្រកួនចិត - Morning Glory Slide ",,0.0000,
777169,"ប៉េងប៉ោះឈើរី​ - cherry tomato Eco",,4.0000,
777170,"ប៉េងប៉ោះ​ខ្មែរធំ - Khmer Tomato Big size",,8.5080,
777171,ដើមក្ដាត-kdat,,0.7300,
777174,ប៉េងប៉ោះជប៉ុន,,0.9200,
777180,"Mix Vegetable ",,5.0000,
777181,"ផ្ទីដូង​ ",,1.7400,
777188,"ត្រសក់អាមេរិក - American Cucumber",,7.1382,
777189,ស្ពៃជើងទា,,4.0000,
8849000000861,"ម្ទេសក្រៀម - Dry Red Chili 50g ",,20.0000,
8849000000915,"ម្ទេសប្លោកក្រៀម - ​Dried Peppers",,9.0000,
8855718000024,"ផ្សិតម្ជុលនាំចូល​ - Needle Mushroom 200g",,6.0100,
