﻿category,subcategory,name,unit,price,purchasedate
C-006,S-002,price,6,500,2023/02/01
C-006,S-002,prciess,6,500,2023/02/02
C-006,S-002,okka,6,500,2023/02/03
C-006,S-002,books,6,500,2023/02/04
C-006,S-002,aacvvb,6,500,2023/02/05